cache_waveform.vcd
$date
	Sun May 31 17:43:45 2026
$end
$version
	Icarus Verilog
$end
$timescale
	1ps
$end
$scope module cache_tb $end
$var wire 1 ! mem_write $end
$var wire 128 " mem_wdata [127:0] $end
$var wire 1 # mem_req_valid $end
$var wire 32 $ mem_addr [31:0] $end
$var wire 1 % cpu_ready $end
$var wire 32 & cpu_rdata [31:0] $end
$var parameter 32 ' MEM_LATENCY $end
$var reg 1 ( clk $end
$var reg 32 ) cpu_addr [31:0] $end
$var reg 1 * cpu_req_valid $end
$var reg 1 + cpu_req_write $end
$var reg 32 , cpu_wdata [31:0] $end
$var reg 128 - mem_rdata [127:0] $end
$var reg 1 . mem_ready $end
$var reg 1 / rst_n $end
$var integer 32 0 latency_counter [31:0] $end
$scope module dut $end
$var wire 1 ( clk $end
$var wire 32 1 cpu_addr [31:0] $end
$var wire 32 2 cpu_rdata [31:0] $end
$var wire 1 * cpu_req_valid $end
$var wire 1 + cpu_req_write $end
$var wire 32 3 cpu_wdata [31:0] $end
$var wire 1 4 is_hit $end
$var wire 1 5 line_dirty $end
$var wire 18 6 line_tag [17:0] $end
$var wire 1 7 line_valid $end
$var wire 128 8 mem_rdata [127:0] $end
$var wire 1 . mem_ready $end
$var wire 1 / rst_n $end
$var wire 32 9 w0 [31:0] $end
$var wire 32 : w1 [31:0] $end
$var wire 32 ; w2 [31:0] $end
$var wire 32 < w3 [31:0] $end
$var wire 2 = word_offset [1:0] $end
$var wire 32 > selected_word [31:0] $end
$var wire 18 ? curr_addr_tag [17:0] $end
$var wire 10 @ curr_addr_index [9:0] $end
$var parameter 32 A CACHE_LINES $end
$var parameter 32 B INDEX_WIDTH $end
$var parameter 32 C TAG_WIDTH $end
$var reg 1 % cpu_ready $end
$var reg 2 D current_state [1:0] $end
$var reg 32 E mem_addr [31:0] $end
$var reg 1 # mem_req_valid $end
$var reg 128 F mem_wdata [127:0] $end
$var reg 1 ! mem_write $end
$var reg 2 G next_state [1:0] $end
$scope begin $ivl_for_loop0 $end
$var integer 32 H i [31:0] $end
$upscope $end
$upscope $end
$scope task cpu_read $end
$upscope $end
$scope task cpu_write $end
$upscope $end
$upscope $end
$enddefinitions $end
$comment Show the parameter values. $end
$dumpall
b10010 C
b1010 B
b10000000000 A
b11 '
$end
#0
$dumpvars
b10000000000 H
b0 G
b0 F
b0 E
b0 D
b0 @
b0 ?
bx >
b0 =
bx <
bx ;
bx :
bx 9
b0 8
07
bx 6
05
04
b0 3
bx 2
b0 1
b0 0
0/
0.
b0 -
b0 ,
0+
0*
b0 )
0(
bx &
0%
b0 $
0#
b0 "
0!
$end
#5000
b10000000000 H
1(
#10000
0(
#15000
b10000000000 H
1(
#20000
0(
1/
#25000
1(
#30000
b101 @
b1 ?
b10 G
0(
b100000001010000 )
b100000001010000 1
1*
#35000
b100000001010000 $
b100000001010000 E
1#
b10 D
1(
#40000
0(
#45000
b1 0
1(
#50000
0(
#55000
b10 0
1(
#60000
0(
#65000
b0 G
b100000001010000 $
b100000001010000 E
1#
b100000001011101000000000000000001000000010111000000000000000000010000000101101100000000000000000100000001011010 -
b100000001011101000000000000000001000000010111000000000000000000010000000101101100000000000000000100000001011010 8
1.
1(
#70000
0(
#75000
1%
b100000001011010 &
b100000001011010 2
b100000001011010 >
14
b0 G
b0 $
b0 E
0#
b100000001011101 <
b100000001011100 ;
b100000001011011 :
b100000001011010 9
b1 6
17
b0 D
0.
b0 0
1(
#80000
0(
#85000
0%
0*
1(
#90000
0(
#95000
1%
1*
1(
#100000
0(
#105000
0%
0*
1(
#110000
0(
#115000
b11011110101011011011111011101111 &
b11011110101011011011111011101111 2
b11011110101011011011111011101111 >
b11011110101011011011111011101111 9
15
1%
b11011110101011011011111011101111 ,
b11011110101011011011111011101111 3
1+
1*
1(
#120000
0(
#125000
0%
0*
1(
#130000
0(
#135000
1(
#136000
1%
0+
1*
#140000
0(
#145000
0%
0*
1(
#150000
0(
#155000
b10 G
bx &
bx 2
bx >
04
07
05
bx 6
bx 9
bx :
bx ;
bx <
b1010 @
b10 ?
0%
b11001010111111101011101010111110 ,
b11001010111111101011101010111110 3
b1000000010100000 )
b1000000010100000 1
1+
1*
1(
#160000
0(
#165000
b1000000010100000 $
b1000000010100000 E
1#
b10 D
1(
#170000
0(
#175000
b1 0
1(
#180000
0(
#185000
b10 0
1(
#190000
0(
#195000
b0 G
b1000000010100000 $
b1000000010100000 E
1#
b1000000010101101000000000000000010000000101011000000000000000000100000001010101100000000000000001000000010101010 -
b1000000010101101000000000000000010000000101011000000000000000000100000001010101100000000000000001000000010101010 8
1.
1(
#200000
0(
#205000
1%
b11001010111111101011101010111110 &
b11001010111111101011101010111110 2
b11001010111111101011101010111110 >
14
b0 G
b0 $
b0 E
0#
0.
b0 0
b1000000010101101 <
b1000000010101100 ;
b1000000010101011 :
b11001010111111101011101010111110 9
15
b10 6
17
b0 D
1(
#210000
0(
#215000
0%
0*
1(
#220000
0(
#225000
1(
#226000
b1 G
04
b1 6
b100000001011011 :
b100000001011100 ;
b100000001011101 <
b101 @
b1001 ?
0%
b100100000001010000 )
b100100000001010000 1
0+
1*
#230000
0(
#235000
b100000001010000 $
b100000001010000 E
1!
1#
b100000001011101000000000000000001000000010111000000000000000000010000000101101111001010111111101011101010111110 "
b100000001011101000000000000000001000000010111000000000000000000010000000101101111001010111111101011101010111110 F
b1 D
1(
#240000
0(
#245000
b1 0
1(
#250000
0(
#255000
b10 0
1(
#260000
0(
#265000
b10 G
b100000001010000 $
b100000001010000 E
1!
1#
1.
1(
#270000
0(
#275000
b100100000001010000 $
b100100000001010000 E
0!
1#
b10 D
0.
b0 0
1(
#280000
0(
#285000
b1 0
1(
#290000
0(
#295000
b10 0
1(
#300000
0(
#305000
b0 G
b100100000001010000 $
b100100000001010000 E
1#
b100100000001011101000000000000001001000000010111000000000000000010010000000101101100000000000000100100000001011010 -
b100100000001011101000000000000001001000000010111000000000000000010010000000101101100000000000000100100000001011010 8
1.
1(
#310000
0(
#315000
1%
b100100000001011010 &
b100100000001011010 2
b100100000001011010 >
14
b0 G
b0 $
b0 E
0#
b100100000001011101 <
b100100000001011100 ;
b100100000001011011 :
b100100000001011010 9
05
b1001 6
b0 D
0.
b0 0
1(
#320000
0(
#325000
0%
0*
1(
#330000
0(
#335000
1%
1*
1(
#340000
0(
#345000
0%
0*
1(
